%!PS-Adobe-3.0 EPSF-3.0
%%Creator: MATLAB, The Mathworks, Inc. Version 7.9.0.529 (R2009b). Operating System: Microsoft Windows Vista.
%%Title: C:\Users\park1j\ARM_WORK\ADS\trunk\VEHICLE\HEAVY\MTOR_HVY_AD_Universal_Map\Readme\Figures\UpHalf_sigmoid.eps
%%CreationDate: 06/17/2013  15:53:05
%%DocumentNeededFonts: Helvetica
%%DocumentProcessColors: Cyan Magenta Yellow Black
%%LanguageLevel: 2
%%Pages: 1
%%BoundingBox:   -43   106   655   685
%%EndComments

%%BeginProlog
% MathWorks dictionary
/MathWorks 160 dict begin
% definition operators
/bdef {bind def} bind def
/ldef {load def} bind def
/xdef {exch def} bdef
/xstore {exch store} bdef
% operator abbreviations
/c  /clip ldef
/cc /concat ldef
/cp /closepath ldef
/gr /grestore ldef
/gs /gsave ldef
/mt /moveto ldef
/np /newpath ldef
/cm /currentmatrix ldef
/sm /setmatrix ldef
/rm /rmoveto ldef
/rl /rlineto ldef
/s {show newpath} bdef
/sc {setcmykcolor} bdef
/sr /setrgbcolor ldef
/sg /setgray ldef
/w /setlinewidth ldef
/j /setlinejoin ldef
/cap /setlinecap ldef
/rc {rectclip} bdef
/rf {rectfill} bdef
% page state control
/pgsv () def
/bpage {/pgsv save def} bdef
/epage {pgsv restore} bdef
/bplot /gsave ldef
/eplot {stroke grestore} bdef
% orientation switch
/portraitMode 0 def /landscapeMode 1 def /rotateMode 2 def
% coordinate system mappings
/dpi2point 0 def
% font control
/FontSize 0 def
/FMS {/FontSize xstore findfont [FontSize 0 0 FontSize neg 0 0]
  makefont setfont} bdef
/ISOLatin1Encoding where {pop /WindowsLatin1Encoding 256 array bdef
ISOLatin1Encoding WindowsLatin1Encoding copy pop
/.notdef/.notdef/quotesinglbase/florin/quotedblbase/ellipsis/dagger
/daggerdbl/circumflex/perthousand/Scaron/guilsinglleft/OE/.notdef/.notdef
/.notdef/.notdef/quoteleft/quoteright/quotedblleft/quotedblright/bullet
/endash/emdash/tilde/trademark/scaron/guilsinglright/oe/.notdef/.notdef
/Ydieresis WindowsLatin1Encoding 128 32 getinterval astore pop}
{/WindowsLatin1Encoding StandardEncoding bdef} ifelse
/reencode {exch dup where {pop load} {pop StandardEncoding} ifelse
  exch dup 3 1 roll findfont dup length dict begin
  { 1 index /FID ne {def}{pop pop} ifelse } forall
  /Encoding exch def currentdict end definefont pop} bdef
/isroman {findfont /CharStrings get /Agrave known} bdef
/FMSR {3 1 roll 1 index dup isroman {reencode} {pop pop} ifelse
  exch FMS} bdef
/csm {1 dpi2point div -1 dpi2point div scale neg translate
 dup landscapeMode eq {pop -90 rotate}
  {rotateMode eq {90 rotate} if} ifelse} bdef
% line types: solid, dotted, dashed, dotdash
/SO { [] 0 setdash } bdef
/DO { [.5 dpi2point mul 4 dpi2point mul] 0 setdash } bdef
/DA { [6 dpi2point mul] 0 setdash } bdef
/DD { [.5 dpi2point mul 4 dpi2point mul 6 dpi2point mul 4
  dpi2point mul] 0 setdash } bdef
% macros for lines and objects
/L {lineto stroke} bdef
/MP {3 1 roll moveto 1 sub {rlineto} repeat} bdef
/AP {{rlineto} repeat} bdef
/PDlw -1 def
/W {/PDlw currentlinewidth def setlinewidth} def
/PP {closepath eofill} bdef
/DP {closepath stroke} bdef
/MR {4 -2 roll moveto dup  0 exch rlineto exch 0 rlineto
  neg 0 exch rlineto closepath} bdef
/FR {MR stroke} bdef
/PR {MR fill} bdef
/L1i {{currentfile picstr readhexstring pop} image} bdef
/tMatrix matrix def
/MakeOval {newpath tMatrix currentmatrix pop translate scale
0 0 1 0 360 arc tMatrix setmatrix} bdef
/FO {MakeOval stroke} bdef
/PO {MakeOval fill} bdef
/PD {currentlinewidth 2 div 0 360 arc fill
   PDlw -1 eq not {PDlw w /PDlw -1 def} if} def
/FA {newpath tMatrix currentmatrix pop translate scale
  0 0 1 5 -2 roll arc tMatrix setmatrix stroke} bdef
/PA {newpath tMatrix currentmatrix pop	translate 0 0 moveto scale
  0 0 1 5 -2 roll arc closepath tMatrix setmatrix fill} bdef
/FAn {newpath tMatrix currentmatrix pop translate scale
  0 0 1 5 -2 roll arcn tMatrix setmatrix stroke} bdef
/PAn {newpath tMatrix currentmatrix pop translate 0 0 moveto scale
  0 0 1 5 -2 roll arcn closepath tMatrix setmatrix fill} bdef
/vradius 0 def /hradius 0 def /lry 0 def
/lrx 0 def /uly 0 def /ulx 0 def /rad 0 def
/MRR {/vradius xdef /hradius xdef /lry xdef /lrx xdef /uly xdef
  /ulx xdef newpath tMatrix currentmatrix pop ulx hradius add uly
  vradius add translate hradius vradius scale 0 0 1 180 270 arc 
  tMatrix setmatrix lrx hradius sub uly vradius add translate
  hradius vradius scale 0 0 1 270 360 arc tMatrix setmatrix
  lrx hradius sub lry vradius sub translate hradius vradius scale
  0 0 1 0 90 arc tMatrix setmatrix ulx hradius add lry vradius sub
  translate hradius vradius scale 0 0 1 90 180 arc tMatrix setmatrix
  closepath} bdef
/FRR {MRR stroke } bdef
/PRR {MRR fill } bdef
/MlrRR {/lry xdef /lrx xdef /uly xdef /ulx xdef /rad lry uly sub 2 div def
  newpath tMatrix currentmatrix pop ulx rad add uly rad add translate
  rad rad scale 0 0 1 90 270 arc tMatrix setmatrix lrx rad sub lry rad
  sub translate rad rad scale 0 0 1 270 90 arc tMatrix setmatrix
  closepath} bdef
/FlrRR {MlrRR stroke } bdef
/PlrRR {MlrRR fill } bdef
/MtbRR {/lry xdef /lrx xdef /uly xdef /ulx xdef /rad lrx ulx sub 2 div def
  newpath tMatrix currentmatrix pop ulx rad add uly rad add translate
  rad rad scale 0 0 1 180 360 arc tMatrix setmatrix lrx rad sub lry rad
  sub translate rad rad scale 0 0 1 0 180 arc tMatrix setmatrix
  closepath} bdef
/FtbRR {MtbRR stroke } bdef
/PtbRR {MtbRR fill } bdef
/stri 6 array def /dtri 6 array def
/smat 6 array def /dmat 6 array def
/tmat1 6 array def /tmat2 6 array def /dif 3 array def
/asub {/ind2 exch def /ind1 exch def dup dup
  ind1 get exch ind2 get sub exch } bdef
/tri_to_matrix {
  2 0 asub 3 1 asub 4 0 asub 5 1 asub
  dup 0 get exch 1 get 7 -1 roll astore } bdef
/compute_transform {
  dmat dtri tri_to_matrix tmat1 invertmatrix 
  smat stri tri_to_matrix tmat2 concatmatrix } bdef
/ds {stri astore pop} bdef
/dt {dtri astore pop} bdef
/db {2 copy /cols xdef /rows xdef mul dup 3 mul string
  currentfile 
  3 index 0 eq {/ASCIIHexDecode filter}
  {/ASCII85Decode filter 3 index 2 eq {/RunLengthDecode filter} if }
  ifelse exch readstring pop
  dup 0 3 index getinterval /rbmap xdef
  dup 2 index dup getinterval /gbmap xdef
  1 index dup 2 mul exch getinterval /bbmap xdef pop pop}bdef
/it {gs np dtri aload pop moveto lineto lineto cp c
  cols rows 8 compute_transform 
  rbmap gbmap bbmap true 3 colorimage gr}bdef
/il {newpath moveto lineto stroke}bdef
currentdict end def
%%EndProlog

%%BeginSetup
MathWorks begin

0 cap

end
%%EndSetup

%%Page: 1 1
%%BeginPageSetup
%%PageBoundingBox:   -43   106   655   685
MathWorks begin
bpage
%%EndPageSetup

%%BeginObject: obj1
bplot

/dpi2point 12 def
portraitMode -0516 8220 csm

    0     0  8387  6948 rc
85 dict begin %Colortable dictionary
/c0 { 0.000000 0.000000 0.000000 sr} bdef
/c1 { 1.000000 1.000000 1.000000 sr} bdef
/c2 { 0.900000 0.000000 0.000000 sr} bdef
/c3 { 0.000000 0.820000 0.000000 sr} bdef
/c4 { 0.000000 0.000000 0.800000 sr} bdef
/c5 { 0.910000 0.820000 0.320000 sr} bdef
/c6 { 1.000000 0.260000 0.820000 sr} bdef
/c7 { 0.000000 0.820000 0.820000 sr} bdef
c0
1 j
1 sg
   0    0 8388 6949 rf
6 w
0 5663 6500 0 0 -5663 1026 6171 4 MP
PP
-6500 0 0 5663 6500 0 0 -5663 1026 6171 5 MP stroke
4 w
DO
SO
6 w
1026 6171 mt 7526 6171 L
1026 6171 mt 1026  508 L
gs 1026 508 6501 5664 rc
36 w
/c8 { 0.000000 0.000000 1.000000 sr} bdef
c8
64 0 65 -1 65 0 65 -1 65 0 65 -1 65 -1 65 0 
65 -1 65 -1 65 0 65 -1 65 -1 65 -1 65 0 65 -1 
65 -1 65 -1 65 -1 65 0 65 -1 65 -1 65 -1 65 -1 
65 -1 65 -1 65 -1 65 -1 65 -1 65 -1 65 -2 65 -1 
66 -1 65 -1 65 -2 64 -1 65 -1 65 -2 65 -1 65 -2 
65 -1 65 -2 65 -1 65 -2 65 -2 65 -2 65 -2 65 -2 
65 -2 65 -2 65 -2 65 -3 65 -2 65 -3 65 -2 65 -3 
65 -3 65 -3 65 -3 65 -3 65 -4 65 -4 65 -3 65 -4 
65 -5 65 -4 65 -5 65 -5 65 -6 65 -5 65 -7 65 -6 
65 -7 65 -8 65 -8 65 -9 65 -9 65 -11 65 -11 65 -12 
65 -14 65 -15 65 -17 65 -18 65 -21 65 -24 65 -27 65 -32 
65 -37 65 -43 65 -52 65 -63 65 -80 65 -102 65 -136 65 -191 
65 -286 65 -476 65 -954 65 -2860 1026 6171 101 MP stroke
64 -2 65 -3 65 -3 65 -3 65 -3 65 -3 65 -3 65 -3 
65 -3 65 -3 65 -4 65 -3 65 -4 65 -3 65 -4 65 -3 
65 -4 65 -4 65 -4 65 -4 65 -4 65 -5 65 -4 65 -4 
65 -5 65 -5 65 -5 65 -4 65 -6 65 -5 65 -5 65 -6 
66 -5 65 -6 65 -6 64 -6 65 -7 65 -6 65 -7 65 -7 
65 -7 65 -7 65 -8 65 -8 65 -8 65 -8 65 -9 65 -9 
65 -9 65 -10 65 -10 65 -10 65 -11 65 -11 65 -12 65 -12 
65 -13 65 -13 65 -14 65 -14 65 -15 65 -16 65 -16 65 -17 
65 -19 65 -19 65 -20 65 -21 65 -22 65 -24 65 -25 65 -26 
65 -28 65 -30 65 -32 65 -35 65 -36 65 -39 65 -43 65 -46 
65 -49 65 -54 65 -59 65 -64 65 -71 65 -78 65 -87 65 -97 
65 -110 65 -123 65 -142 65 -163 65 -191 65 -225 65 -270 65 -331 
65 -413 65 -531 65 -707 65 -992 1026 6171 101 MP stroke
65 -19 65 -19 65 -19 65 -20 65 -20 65 -20 65 -21 65 -21 
65 -21 65 -22 65 -22 65 -22 65 -22 65 -23 65 -23 65 -24 
65 -23 65 -25 65 -24 65 -25 65 -25 65 -26 65 -26 65 -27 
65 -27 65 -27 65 -28 65 -28 65 -29 65 -29 65 -30 65 -30 
66 -31 65 -31 65 -32 64 -33 65 -33 65 -33 65 -34 65 -35 
65 -36 65 -36 65 -36 65 -38 65 -38 65 -39 65 -40 65 -40 
65 -41 65 -42 65 -43 65 -44 65 -45 65 -45 65 -47 65 -47 
65 -49 65 -50 65 -50 65 -52 65 -53 65 -54 65 -56 65 -57 
65 -58 65 -59 65 -61 65 -63 65 -64 65 -65 65 -67 65 -69 
65 -71 65 -72 65 -75 65 -77 65 -78 65 -81 65 -83 65 -85 
65 -88 65 -91 65 -93 65 -96 65 -99 65 -102 65 -106 65 -108 
65 -113 65 -116 65 -120 65 -124 65 -128 65 -133 65 -138 65 -143 
65 -149 65 -154 65 -160 65 -167 1026 6171 101 MP stroke
65 -28 65 -29 65 -29 65 -29 65 -30 65 -30 65 -30 65 -30 
65 -31 65 -32 65 -31 65 -32 65 -32 65 -33 65 -33 65 -33 
65 -34 65 -34 65 -34 65 -35 65 -35 65 -35 65 -36 65 -37 
65 -37 65 -37 65 -37 65 -38 65 -39 65 -39 65 -39 65 -40 
66 -41 65 -40 65 -42 64 -42 65 -42 65 -43 65 -43 65 -44 
65 -45 65 -45 65 -46 65 -46 65 -47 65 -47 65 -48 65 -49 
65 -49 65 -50 65 -51 65 -51 65 -52 65 -53 65 -54 65 -54 
65 -55 65 -56 65 -56 65 -57 65 -59 65 -59 65 -60 65 -60 
65 -62 65 -63 65 -63 65 -65 65 -65 65 -67 65 -67 65 -69 
65 -70 65 -70 65 -72 65 -73 65 -75 65 -75 65 -77 65 -78 
65 -79 65 -81 65 -82 65 -83 65 -85 65 -87 65 -88 65 -89 
65 -91 65 -93 65 -94 65 -97 65 -98 65 -99 65 -102 65 -104 
65 -106 65 -107 65 -110 65 -113 1026 6171 101 MP stroke
65 -45 65 -45 65 -46 65 -46 65 -46 65 -47 65 -46 65 -47 
65 -47 65 -47 65 -47 65 -48 65 -47 65 -48 65 -48 65 -48 
65 -49 65 -48 65 -49 65 -49 65 -50 65 -49 65 -50 65 -50 
65 -50 65 -50 65 -51 65 -50 65 -51 65 -51 65 -52 65 -51 
66 -52 65 -52 65 -52 64 -53 65 -53 65 -53 65 -53 65 -53 
65 -54 65 -54 65 -54 65 -54 65 -55 65 -55 65 -55 65 -55 
65 -56 65 -55 65 -56 65 -57 65 -56 65 -57 65 -57 65 -58 
65 -57 65 -58 65 -58 65 -58 65 -59 65 -59 65 -59 65 -60 
65 -59 65 -60 65 -61 65 -60 65 -61 65 -61 65 -61 65 -62 
65 -62 65 -62 65 -63 65 -63 65 -63 65 -63 65 -64 65 -64 
65 -65 65 -64 65 -65 65 -65 65 -66 65 -66 65 -66 65 -67 
65 -67 65 -67 65 -67 65 -68 65 -69 65 -68 65 -69 65 -69 
65 -70 65 -70 65 -70 65 -71 1026 6171 101 MP stroke
65 -51 65 -51 65 -51 65 -51 65 -52 65 -51 65 -52 65 -52 
65 -51 65 -52 65 -52 65 -53 65 -52 65 -52 65 -53 65 -52 
65 -53 65 -53 65 -53 65 -53 65 -53 65 -53 65 -53 65 -54 
65 -53 65 -54 65 -54 65 -54 65 -54 65 -54 65 -54 65 -54 
66 -55 65 -54 65 -55 64 -55 65 -55 65 -55 65 -55 65 -55 
65 -55 65 -56 65 -56 65 -55 65 -56 65 -56 65 -56 65 -56 
65 -57 65 -56 65 -57 65 -56 65 -57 65 -57 65 -57 65 -57 
65 -57 65 -58 65 -57 65 -58 65 -57 65 -58 65 -58 65 -58 
65 -59 65 -58 65 -59 65 -58 65 -59 65 -59 65 -59 65 -59 
65 -59 65 -59 65 -60 65 -60 65 -59 65 -60 65 -60 65 -60 
65 -61 65 -60 65 -61 65 -60 65 -61 65 -61 65 -61 65 -61 
65 -62 65 -61 65 -62 65 -62 65 -61 65 -62 65 -63 65 -62 
65 -62 65 -63 65 -63 65 -63 1026 6171 101 MP stroke
6 w
gr

c8

end %%Color Dict

eplot
%%EndObject

epage
end

showpage

%%Trailer
%%EOF
